<mxfile host="app.diagrams.net" modified="2021-08-19T07:56:32.874Z" agent="5.0 (Windows NT 10.0; Win64; x64) AppleWebKit/537.36 (KHTML, like Gecko) Chrome/92.0.4515.131 Safari/537.36" etag="0yX7pyMGqMBvkBBWKn5n" version="14.9.7" type="gitlab">
  <diagram id="t14TJ9lallllJm3Wo47J" name="Page-1">
    <mxGraphModel dx="1038" dy="555" grid="1" gridSize="10" guides="1" tooltips="1" connect="1" arrows="1" fold="1" page="1" pageScale="1" pageWidth="827" pageHeight="1169" math="0" shadow="0">
      <root>
        <mxCell id="0" />
        <mxCell id="1" parent="0" />
        <mxCell id="3u-HHbz2MXbGpzksaPSu-1" value="socio" style="rounded=0;whiteSpace=wrap;html=1;" vertex="1" parent="1">
          <mxGeometry x="110" y="110" width="120" height="60" as="geometry" />
        </mxCell>
        <mxCell id="3u-HHbz2MXbGpzksaPSu-19" style="edgeStyle=orthogonalEdgeStyle;rounded=0;orthogonalLoop=1;jettySize=auto;html=1;exitX=0.5;exitY=1;exitDx=0;exitDy=0;" edge="1" parent="1" source="3u-HHbz2MXbGpzksaPSu-2" target="3u-HHbz2MXbGpzksaPSu-1">
          <mxGeometry relative="1" as="geometry" />
        </mxCell>
        <mxCell id="3u-HHbz2MXbGpzksaPSu-2" value="dni" style="ellipse;whiteSpace=wrap;html=1;" vertex="1" parent="1">
          <mxGeometry x="130" y="40" width="80" height="50" as="geometry" />
        </mxCell>
        <mxCell id="3u-HHbz2MXbGpzksaPSu-20" style="edgeStyle=orthogonalEdgeStyle;rounded=0;orthogonalLoop=1;jettySize=auto;html=1;exitX=1;exitY=1;exitDx=0;exitDy=0;entryX=0;entryY=0.123;entryDx=0;entryDy=0;entryPerimeter=0;" edge="1" parent="1" source="3u-HHbz2MXbGpzksaPSu-3" target="3u-HHbz2MXbGpzksaPSu-1">
          <mxGeometry relative="1" as="geometry" />
        </mxCell>
        <mxCell id="3u-HHbz2MXbGpzksaPSu-3" value="direccion" style="ellipse;whiteSpace=wrap;html=1;" vertex="1" parent="1">
          <mxGeometry x="30" y="40" width="80" height="50" as="geometry" />
        </mxCell>
        <mxCell id="3u-HHbz2MXbGpzksaPSu-21" style="edgeStyle=orthogonalEdgeStyle;rounded=0;orthogonalLoop=1;jettySize=auto;html=1;exitX=1;exitY=0.5;exitDx=0;exitDy=0;entryX=0;entryY=0.75;entryDx=0;entryDy=0;" edge="1" parent="1" source="3u-HHbz2MXbGpzksaPSu-4" target="3u-HHbz2MXbGpzksaPSu-1">
          <mxGeometry relative="1" as="geometry" />
        </mxCell>
        <mxCell id="3u-HHbz2MXbGpzksaPSu-4" value="teléfono" style="ellipse;whiteSpace=wrap;html=1;" vertex="1" parent="1">
          <mxGeometry x="20" y="120" width="80" height="50" as="geometry" />
        </mxCell>
        <mxCell id="3u-HHbz2MXbGpzksaPSu-22" style="edgeStyle=orthogonalEdgeStyle;rounded=0;orthogonalLoop=1;jettySize=auto;html=1;exitX=0.5;exitY=0;exitDx=0;exitDy=0;entryX=0.167;entryY=1;entryDx=0;entryDy=0;entryPerimeter=0;" edge="1" parent="1" source="3u-HHbz2MXbGpzksaPSu-5" target="3u-HHbz2MXbGpzksaPSu-1">
          <mxGeometry relative="1" as="geometry" />
        </mxCell>
        <mxCell id="3u-HHbz2MXbGpzksaPSu-5" value="nombre&lt;br&gt;apellidos" style="ellipse;whiteSpace=wrap;html=1;" vertex="1" parent="1">
          <mxGeometry x="100" y="190" width="80" height="50" as="geometry" />
        </mxCell>
        <mxCell id="3u-HHbz2MXbGpzksaPSu-6" value="libro&lt;br&gt;" style="rounded=0;whiteSpace=wrap;html=1;" vertex="1" parent="1">
          <mxGeometry x="530" y="110" width="120" height="60" as="geometry" />
        </mxCell>
        <mxCell id="3u-HHbz2MXbGpzksaPSu-23" style="edgeStyle=orthogonalEdgeStyle;rounded=0;orthogonalLoop=1;jettySize=auto;html=1;exitX=0.5;exitY=1;exitDx=0;exitDy=0;entryX=0.25;entryY=0;entryDx=0;entryDy=0;" edge="1" parent="1" source="3u-HHbz2MXbGpzksaPSu-7" target="3u-HHbz2MXbGpzksaPSu-6">
          <mxGeometry relative="1" as="geometry" />
        </mxCell>
        <mxCell id="3u-HHbz2MXbGpzksaPSu-7" value="titulo&lt;span style=&quot;color: rgba(0 , 0 , 0 , 0) ; font-family: monospace ; font-size: 0px&quot;&gt;%3CmxGraphModel%3E%3Croot%3E%3CmxCell%20id%3D%220%22%2F%3E%3CmxCell%20id%3D%221%22%20parent%3D%220%22%2F%3E%3CmxCell%20id%3D%222%22%20value%3D%22dni%22%20style%3D%22ellipse%3BwhiteSpace%3Dwrap%3Bhtml%3D1%3B%22%20vertex%3D%221%22%20parent%3D%221%22%3E%3CmxGeometry%20x%3D%22130%22%20y%3D%2210%22%20width%3D%2280%22%20height%3D%2250%22%20as%3D%22geometry%22%2F%3E%3C%2FmxCell%3E%3C%2Froot%3E%3C%2FmxGraphModel%3E&lt;/span&gt;" style="ellipse;whiteSpace=wrap;html=1;" vertex="1" parent="1">
          <mxGeometry x="530" y="40" width="80" height="50" as="geometry" />
        </mxCell>
        <mxCell id="3u-HHbz2MXbGpzksaPSu-13" style="edgeStyle=orthogonalEdgeStyle;rounded=0;orthogonalLoop=1;jettySize=auto;html=1;" edge="1" parent="1">
          <mxGeometry relative="1" as="geometry">
            <mxPoint x="680" y="60" as="targetPoint" />
            <mxPoint x="680" y="60" as="sourcePoint" />
          </mxGeometry>
        </mxCell>
        <mxCell id="3u-HHbz2MXbGpzksaPSu-24" style="edgeStyle=orthogonalEdgeStyle;rounded=0;orthogonalLoop=1;jettySize=auto;html=1;exitX=0;exitY=1;exitDx=0;exitDy=0;entryX=0.75;entryY=0;entryDx=0;entryDy=0;" edge="1" parent="1" source="3u-HHbz2MXbGpzksaPSu-8" target="3u-HHbz2MXbGpzksaPSu-6">
          <mxGeometry relative="1" as="geometry" />
        </mxCell>
        <mxCell id="3u-HHbz2MXbGpzksaPSu-8" value="editorial" style="ellipse;whiteSpace=wrap;html=1;" vertex="1" parent="1">
          <mxGeometry x="620" y="40" width="80" height="50" as="geometry" />
        </mxCell>
        <mxCell id="3u-HHbz2MXbGpzksaPSu-25" style="edgeStyle=orthogonalEdgeStyle;rounded=0;orthogonalLoop=1;jettySize=auto;html=1;exitX=0;exitY=0.5;exitDx=0;exitDy=0;entryX=1;entryY=0.25;entryDx=0;entryDy=0;" edge="1" parent="1" source="3u-HHbz2MXbGpzksaPSu-9" target="3u-HHbz2MXbGpzksaPSu-6">
          <mxGeometry relative="1" as="geometry" />
        </mxCell>
        <mxCell id="3u-HHbz2MXbGpzksaPSu-9" value="año" style="ellipse;whiteSpace=wrap;html=1;" vertex="1" parent="1">
          <mxGeometry x="700" y="100" width="80" height="50" as="geometry" />
        </mxCell>
        <mxCell id="3u-HHbz2MXbGpzksaPSu-26" style="edgeStyle=orthogonalEdgeStyle;rounded=0;orthogonalLoop=1;jettySize=auto;html=1;exitX=0;exitY=0;exitDx=0;exitDy=0;entryX=1;entryY=0.75;entryDx=0;entryDy=0;" edge="1" parent="1" source="3u-HHbz2MXbGpzksaPSu-10" target="3u-HHbz2MXbGpzksaPSu-6">
          <mxGeometry relative="1" as="geometry" />
        </mxCell>
        <mxCell id="3u-HHbz2MXbGpzksaPSu-10" value="&#xa;&#xa;&lt;span style=&quot;color: rgb(0, 0, 0); font-family: helvetica; font-size: 12px; font-style: normal; font-weight: 400; letter-spacing: normal; text-align: center; text-indent: 0px; text-transform: none; word-spacing: 0px; background-color: rgb(248, 249, 250); display: inline; float: none;&quot;&gt;autor&lt;/span&gt;&#xa;&#xa;" style="ellipse;whiteSpace=wrap;html=1;" vertex="1" parent="1">
          <mxGeometry x="700" y="160" width="80" height="50" as="geometry" />
        </mxCell>
        <mxCell id="3u-HHbz2MXbGpzksaPSu-27" style="edgeStyle=orthogonalEdgeStyle;rounded=0;orthogonalLoop=1;jettySize=auto;html=1;exitX=0.5;exitY=0;exitDx=0;exitDy=0;entryX=0.867;entryY=1.03;entryDx=0;entryDy=0;entryPerimeter=0;" edge="1" parent="1" source="3u-HHbz2MXbGpzksaPSu-11" target="3u-HHbz2MXbGpzksaPSu-6">
          <mxGeometry relative="1" as="geometry" />
        </mxCell>
        <mxCell id="3u-HHbz2MXbGpzksaPSu-11" value="año edicion&lt;br&gt;" style="ellipse;whiteSpace=wrap;html=1;" vertex="1" parent="1">
          <mxGeometry x="620" y="200" width="80" height="50" as="geometry" />
        </mxCell>
        <mxCell id="3u-HHbz2MXbGpzksaPSu-28" style="edgeStyle=orthogonalEdgeStyle;rounded=0;orthogonalLoop=1;jettySize=auto;html=1;exitX=0.5;exitY=0;exitDx=0;exitDy=0;entryX=0.32;entryY=1.07;entryDx=0;entryDy=0;entryPerimeter=0;" edge="1" parent="1" source="3u-HHbz2MXbGpzksaPSu-12" target="3u-HHbz2MXbGpzksaPSu-6">
          <mxGeometry relative="1" as="geometry" />
        </mxCell>
        <mxCell id="3u-HHbz2MXbGpzksaPSu-12" value="ISBN" style="ellipse;whiteSpace=wrap;html=1;" vertex="1" parent="1">
          <mxGeometry x="530" y="200" width="80" height="50" as="geometry" />
        </mxCell>
        <mxCell id="3u-HHbz2MXbGpzksaPSu-30" style="edgeStyle=orthogonalEdgeStyle;rounded=0;orthogonalLoop=1;jettySize=auto;html=1;exitX=1;exitY=0.5;exitDx=0;exitDy=0;entryX=0;entryY=0.5;entryDx=0;entryDy=0;" edge="1" parent="1" source="3u-HHbz2MXbGpzksaPSu-15" target="3u-HHbz2MXbGpzksaPSu-18">
          <mxGeometry relative="1" as="geometry" />
        </mxCell>
        <mxCell id="3u-HHbz2MXbGpzksaPSu-15" value="Fecha prestamo" style="ellipse;whiteSpace=wrap;html=1;" vertex="1" parent="1">
          <mxGeometry x="20" y="355" width="80" height="50" as="geometry" />
        </mxCell>
        <mxCell id="3u-HHbz2MXbGpzksaPSu-31" style="edgeStyle=orthogonalEdgeStyle;rounded=0;orthogonalLoop=1;jettySize=auto;html=1;exitX=0.5;exitY=0;exitDx=0;exitDy=0;entryX=0.5;entryY=1;entryDx=0;entryDy=0;" edge="1" parent="1" source="3u-HHbz2MXbGpzksaPSu-16" target="3u-HHbz2MXbGpzksaPSu-18">
          <mxGeometry relative="1" as="geometry" />
        </mxCell>
        <mxCell id="3u-HHbz2MXbGpzksaPSu-16" value="vencimiento" style="ellipse;whiteSpace=wrap;html=1;" vertex="1" parent="1">
          <mxGeometry x="150" y="460" width="80" height="50" as="geometry" />
        </mxCell>
        <mxCell id="3u-HHbz2MXbGpzksaPSu-29" style="edgeStyle=orthogonalEdgeStyle;rounded=0;orthogonalLoop=1;jettySize=auto;html=1;exitX=0;exitY=0.5;exitDx=0;exitDy=0;entryX=1;entryY=0.25;entryDx=0;entryDy=0;" edge="1" parent="1" source="3u-HHbz2MXbGpzksaPSu-17" target="3u-HHbz2MXbGpzksaPSu-18">
          <mxGeometry relative="1" as="geometry" />
        </mxCell>
        <mxCell id="3u-HHbz2MXbGpzksaPSu-17" value="Fecha entrega" style="ellipse;whiteSpace=wrap;html=1;" vertex="1" parent="1">
          <mxGeometry x="310" y="410" width="80" height="50" as="geometry" />
        </mxCell>
        <mxCell id="3u-HHbz2MXbGpzksaPSu-18" value="prestamo" style="rounded=0;whiteSpace=wrap;html=1;" vertex="1" parent="1">
          <mxGeometry x="130" y="350" width="120" height="60" as="geometry" />
        </mxCell>
        <mxCell id="3u-HHbz2MXbGpzksaPSu-32" value="autores" style="rounded=0;whiteSpace=wrap;html=1;" vertex="1" parent="1">
          <mxGeometry x="550" y="350" width="120" height="60" as="geometry" />
        </mxCell>
        <mxCell id="3u-HHbz2MXbGpzksaPSu-34" style="edgeStyle=orthogonalEdgeStyle;rounded=0;orthogonalLoop=1;jettySize=auto;html=1;exitX=0.5;exitY=1;exitDx=0;exitDy=0;entryX=0.313;entryY=-0.01;entryDx=0;entryDy=0;entryPerimeter=0;" edge="1" parent="1" source="3u-HHbz2MXbGpzksaPSu-33" target="3u-HHbz2MXbGpzksaPSu-32">
          <mxGeometry relative="1" as="geometry" />
        </mxCell>
        <mxCell id="3u-HHbz2MXbGpzksaPSu-33" value="nombre" style="ellipse;whiteSpace=wrap;html=1;" vertex="1" parent="1">
          <mxGeometry x="550" y="260" width="80" height="50" as="geometry" />
        </mxCell>
        <mxCell id="3u-HHbz2MXbGpzksaPSu-36" style="edgeStyle=orthogonalEdgeStyle;rounded=0;orthogonalLoop=1;jettySize=auto;html=1;entryX=1;entryY=0.5;entryDx=0;entryDy=0;" edge="1" parent="1" source="3u-HHbz2MXbGpzksaPSu-35" target="3u-HHbz2MXbGpzksaPSu-32">
          <mxGeometry relative="1" as="geometry" />
        </mxCell>
        <mxCell id="3u-HHbz2MXbGpzksaPSu-35" value="libros" style="ellipse;whiteSpace=wrap;html=1;" vertex="1" parent="1">
          <mxGeometry x="700" y="355" width="80" height="50" as="geometry" />
        </mxCell>
        <mxCell id="3u-HHbz2MXbGpzksaPSu-38" style="edgeStyle=orthogonalEdgeStyle;rounded=0;orthogonalLoop=1;jettySize=auto;html=1;exitX=1;exitY=0;exitDx=0;exitDy=0;entryX=0.173;entryY=1.017;entryDx=0;entryDy=0;entryPerimeter=0;" edge="1" parent="1" source="3u-HHbz2MXbGpzksaPSu-37" target="3u-HHbz2MXbGpzksaPSu-18">
          <mxGeometry relative="1" as="geometry" />
        </mxCell>
        <mxCell id="3u-HHbz2MXbGpzksaPSu-37" value="Dni socio" style="ellipse;whiteSpace=wrap;html=1;" vertex="1" parent="1">
          <mxGeometry x="50" y="440" width="80" height="50" as="geometry" />
        </mxCell>
        <mxCell id="3u-HHbz2MXbGpzksaPSu-41" style="edgeStyle=orthogonalEdgeStyle;rounded=0;orthogonalLoop=1;jettySize=auto;html=1;exitX=0.5;exitY=1;exitDx=0;exitDy=0;entryX=0.25;entryY=0;entryDx=0;entryDy=0;" edge="1" parent="1" source="3u-HHbz2MXbGpzksaPSu-39" target="3u-HHbz2MXbGpzksaPSu-18">
          <mxGeometry relative="1" as="geometry" />
        </mxCell>
        <mxCell id="3u-HHbz2MXbGpzksaPSu-39" value="ISBN" style="ellipse;whiteSpace=wrap;html=1;" vertex="1" parent="1">
          <mxGeometry x="120" y="280" width="80" height="50" as="geometry" />
        </mxCell>
      </root>
    </mxGraphModel>
  </diagram>
</mxfile>
